{
    "auth": {
        "username": "chanakabandaraud1",
        "access_key": "sryepWiVLK49Vzpcqdgq"
    },
    "browsers": [
        {
            "browser": "chrome",
            "os": "Windows 10",
            "versions": [
                "latest",
                "latest-1"
            ]
        },
        {
            "browser": "firefox",
            "os": "Windows 10",
            "versions": [
                "latest",
                "latest-1"
            ]
        },
        {
            "browser": "edge",
            "os": "Windows 10",
            "versions": [
                "latest",
                "latest-1"
            ]
        }
    ],
    "run_settings": {
        "cypress_config_file": "./cypress.json",
        "exclude": ["cypress\\integration\\pom\\**\\**.js"],
        "cypress_version": "7",
        "project_name": "My sandbox project",
        "build_name": "Build no. 1",
        "parallels": "5"
    },
    "connection_settings": {
        "local": false,
        "local_identifier": null,
        "local_mode": null,
        "local_config_file": null
    },
    "disable_usage_reporting": false
}